…
Suppose we have the following task:

> Using the `diamonds` dataset, calculate the average price for each cut
> of “I” colored diamonds.

Okay, first let’s load our libraries and check out the data frame.

``` r
library(tidyverse)
data("diamonds")
diamonds
```

    ## # A tibble: 53,940 x 10
    ##    carat cut       color clarity depth table price     x     y     z
    ##    <dbl> <ord>     <ord> <ord>   <dbl> <dbl> <int> <dbl> <dbl> <dbl>
    ##  1 0.23  Ideal     E     SI2      61.5    55   326  3.95  3.98  2.43
    ##  2 0.21  Premium   E     SI1      59.8    61   326  3.89  3.84  2.31
    ##  3 0.23  Good      E     VS1      56.9    65   327  4.05  4.07  2.31
    ##  4 0.290 Premium   I     VS2      62.4    58   334  4.2   4.23  2.63
    ##  5 0.31  Good      J     SI2      63.3    58   335  4.34  4.35  2.75
    ##  6 0.24  Very Good J     VVS2     62.8    57   336  3.94  3.96  2.48
    ##  7 0.24  Very Good I     VVS1     62.3    57   336  3.95  3.98  2.47
    ##  8 0.26  Very Good H     SI1      61.9    55   337  4.07  4.11  2.53
    ##  9 0.22  Fair      E     VS2      65.1    61   337  3.87  3.78  2.49
    ## 10 0.23  Very Good H     VS1      59.4    61   338  4     4.05  2.39
    ## # … with 53,930 more rows
…
> For each education category, how many white males where killed in
> 2012?

In the sections below, I provide solution code using three different
composition methods but the code is out of order. Rearrange the lines of
code to generate the correct answer.

``` r
library(rcfss)
data("gun_deaths")
gun_deaths
```

    ## # A tibble: 100,798 x 10
    ##       id  year month intent   police sex     age race      place  education
    ##    <dbl> <dbl> <chr> <chr>     <dbl> <chr> <dbl> <chr>     <chr>  <fct>    
    ##  1     1  2012 Jan   Suicide       0 M        34 Asian/Pa… Home   <NA>     
    ##  2     2  2012 Jan   Suicide       0 F        21 White     Street <NA>     
    ##  3     3  2012 Jan   Suicide       0 M        60 White     Other… <NA>     
    ##  4     4  2012 Feb   Suicide       0 M        64 White     Home   <NA>     
    ##  5     5  2012 Feb   Suicide       0 M        31 White     Other… <NA>     
    ##  6     6  2012 Feb   Suicide       0 M        17 Native A… Home   <NA>     
    ##  7     7  2012 Feb   Undeter…      0 M        48 White     Home   <NA>     
    ##  8     8  2012 Mar   Suicide       0 M        41 Native A… Home   <NA>     
    ##  9     9  2012 Feb   Acciden…      0 M        50 White     Other… <NA>     
    ## 10    10  2012 Feb   Suicide       0 M        NA Black     Home   <NA>     
    ## # … with 100,788 more rows
…
